[
  {
    "id": 1,
    "title": "Residential",
    "sortorder": 1,
    "created_at": "2019-01-07 18:08:00"
  },
  {
    "id": 2,
    "title": "Commercial",
    "sortorder": 2,
    "created_at": "2019-01-07 18:08:00"
  },
  {
    "id": 3,
    "title": "Agricultural",
    "sortorder": 3,
    "created_at": "2019-01-07 18:08:00"
  },
  {
    "id": 4,
    "title": "Farm House",
    "sortorder": 4,
    "created_at": "2019-01-07 18:08:00"
  },
  {
    "id": 5,
    "title": "Paying Guest/Hostel",
    "sortorder": 5,
    "created_at": "2019-01-07 18:08:00"
  },
  {
    "id": 6,
    "title": "Flat Mate",
    "sortorder": 6,
    "created_at": "NULL"
  }
]
