[
  {
    "id": 1,
    "is_active": 1,
    "android_device_token": "f0461b53d4a5dc6910a49a47b4a5aac9817bfae1",
    "android_reg_device_id": "384179C0-5B17-4F1B-8ABC-99915C01E162"
  },
  {
    "id": 168,
    "is_active": 1,
    "android_device_token": "d4Q-39ePvK8:APA91bEqeEZEgSFNQ-7FRjLnsS3y-0QjJZxeO6G0QB7gR79B4gaWvcvW0UWEqWQE2X16dJx_eygnIb7vrFg3wLWbhkZBH8_86RYSqZF8Oc_RvHx0aaEE74MN58Ht6Q28mkVZyWshnNkY",
    "android_reg_device_id": "fb1705780497072c"
  },
  {
    "id": 169,
    "is_active": 1,
    "android_device_token": "fxGZrtTdKk4:APA91bEAzBAcdl1Sk2TBMMcqkMW9LeGm3-X7h3lduYVewrEPNuEXq_e0X0hUNR7MbRqqv53hOujJUiV6tskZpIt5RIJaBm8L-_iv8zkfcde1S095PH6zC4uEso9tjcmosDKZUj1Sadbc",
    "android_reg_device_id": "00a33edfe35dbf7d"
  },
  {
    "id": 170,
    "is_active": 1,
    "android_device_token": "cEhhoo903Uo:APA91bEfrgm3mhQpcL-ttgiwYqqK2tX7EIKCXJDadWDNkl7fCcq7DwhKxvSQrmnck6yfqv1vlKiaoN7okoJ4YKx2lcvyxPs0Ta2VUaKKM-ineUvh8GmdPjEyVvKTVIOLV1Wfs0xMqxcV",
    "android_reg_device_id": "f1f7bedcc5b8eddf"
  },
  {
    "id": 171,
    "is_active": 1,
    "android_device_token": "c3GmbHRI22I:APA91bEGDQL9V-hJ5UxFTREL38YoCKrIwT9A4WWgpDqE9ZXICA81MAKXM3LJUki9mjguL6KDgbbDJVN--eYFbDHFNc56f68m5ByYWtRO6tuouZLty3qvXedrYOtvoliwMcfN2YpEuD2t",
    "android_reg_device_id": "1287a6b088da3bb7"
  },
  {
    "id": 177,
    "is_active": 1,
    "android_device_token": "eONyCtEZ1-s:APA91bFWz1FpHBTKpgvGK5OhtNapofMeqxXQ-u96dnlAtp-E_YoVSiubotjhV453Cy86LMvREP18DIFUZxAc-N9WmklySEmPCrjq7i11S8OP0yoizKfoQ28eXtoUDQyVQ94h6P7cXnTL",
    "android_reg_device_id": "52e602c2e9dc6b13"
  },
  {
    "id": 188,
    "is_active": 1,
    "android_device_token": "cpyaPbyoCbU:APA91bHR5EicvHoIVDmmJHXdwcmUNOpFa07d9aXT2P0edEVNF-2MBVOIzOXWZ_Ncsa22vmTEVIwWO0XLew9Kbxpbv9boir-nqsQfM-DYsZhBZc6lrr-Bfx8UOzVVZAnnXWf6WlM-Jarp",
    "android_reg_device_id": "52e602c2e9dc6b13"
  },
  {
    "id": 189,
    "is_active": 1,
    "android_device_token": "cCyosTpxiBc:APA91bHo9zfmOwwnZxDjHcoI3sjxB06XfgZHe632JQTV7POfjCRmBNibW0KP7hKh58LnY2dtkx4gxYD6I-bQKhjKc6iE4EZqOtXmkAQQCUaYxJ8rUWE-myQqjWf4L7XJsyua2twEHwx9",
    "android_reg_device_id": "840cb255da22a1fa"
  },
  {
    "id": 190,
    "is_active": 1,
    "android_device_token": "fTq1FlXHyN0:APA91bHFwGWVSA7lYuB87pwPx4xhkoUUK2Kk_k9M6EeEmFFIsAS4Q8n7cBPsORjeOeXg4N8cSYHN9vY2ESXI9trouVuBxGBx9lEbxx4-TQ8CqoZknfgVDN7DDgsQtFvj9SAFvA14zW9Q",
    "android_reg_device_id": "702cb386b139f245"
  },
  {
    "id": 192,
    "is_active": 1,
    "android_device_token": "fkNN9QsveV4:APA91bFlod091R3GRl2Zu1pe83BZfaBhYbX5GX9XRBn5a-HtClJn7LBEOmVckLPqRh9GitPdEeUkXKfGIi1GebNFIrRN4-T8IDnOWWm4Q3RhqXPgD9RKYAmKbdXnUYaw7mspVq8EHKNq",
    "android_reg_device_id": "702cb386b139f245"
  },
  {
    "id": 193,
    "is_active": 1,
    "android_device_token": "dZJebfvijCY:APA91bGBrOan8A-AvnD8PceiwR-H3DejiRRaTtW3clCJ-npjXm5DmR6ohJZimgw4ep2v-o2YoIXbA2pPdcENxYPsZQbjeJLmtFOI3_yTPCPMXXG0fxQze_qyjqmrg5RSVPCAfOgkC9fv",
    "android_reg_device_id": "702cb386b139f245"
  },
  {
    "id": 195,
    "is_active": 1,
    "android_device_token": "e7Vm51O4SQA:APA91bEeSG1plmx4Nfgyvc39xuPqW1eFs73kceFXD93D7kaYLNTCp6MiQmTpr_dHhQOp41fhkd8-RlHlK689hElx1f17mgv803QZytQwjcEy1T9Y_079ap7QtvjJ6TiamInSzmrwIWNs",
    "android_reg_device_id": "702cb386b139f245"
  },
  {
    "id": 197,
    "is_active": 1,
    "android_device_token": "ewnGkbwtxIk:APA91bFjsj2YvuwtRbPxDe5M7dMDsSY2PlQsYaHADJCSlXVXos9pcsnFIm8ShOOPG2tiLH4af0yBeh_NycpHm26mikGRK2G3ollwTuds28YDumsKFJJKX3ZzrTtpplfO-09LFydBiK7m",
    "android_reg_device_id": "2c1024e98e978c52"
  },
  {
    "id": 198,
    "is_active": 1,
    "android_device_token": "cyaCskLlxOc:APA91bE-ZgND6_eP7tXLIpUy1Cw1z4qqBZ3YCb-4WGFIpdiT6FIO0NwT5EdhD57XJybb_nNcT4mPLuVnsyiqCvlyx75EOAhbivMJBPsjGlSGDl55U8Cbv8ohDohgUXKCoXNcqzNd-sfa",
    "android_reg_device_id": "52e602c2e9dc6b13"
  },
  {
    "id": 199,
    "is_active": 1,
    "android_device_token": "c6iYW91I3fE:APA91bEwy9-D1yxDHETKQZvWULnWN1gkRwo97ItTwT2aUCKvM7fro-suGKqE2hjMYaEJLN7JMSuETnXQUFrPd-7vsCQN3YaN-86NVQuR-2TbAp6zRnJFELvv9HWOJ9fEtjU8ELzHUvQG",
    "android_reg_device_id": "702cb386b139f245"
  },
  {
    "id": 202,
    "is_active": 1,
    "android_device_token": "eb8HId2YFAw:APA91bFMUJSI05aOyfJVBx9xTk-5vdUKjeM-3_Kp2GZxmfb9D6JKqQpVsPHPGzwfx6cjHMT5bHFq5L6yiyObKqj4jy-obvcnUmprPuVPXvT_LdyYM_oZEHF3RD6kGz1LikUc_VpPfUMD",
    "android_reg_device_id": "702cb386b139f245"
  },
  {
    "id": 211,
    "is_active": 1,
    "android_device_token": "fNNmWoC27ww:APA91bE-x_KQq0lyeXjLMTOyhcHnUFUIslMTrtprId8L_MGhOto7Lx8iKAgldvYnIzf7o7yChT63J3xAdDrKxShMpa646aFZKCR0hPq7j7cQs9BrOBn6dXPFcdJh7vDpKwB9TKniQlOC",
    "android_reg_device_id": "7cd02b358d7d51fc"
  },
  {
    "id": 215,
    "is_active": 1,
    "android_device_token": "eCh4c51jnJ8:APA91bGlF6cuM38TmCXgTXYic5ozXVe5TwiDZkGyMJ91SOf-UubZfm17_3JZkeVO3ylN-Tqk8wmAh5FPBfRvBfCWhfyt-ZpdcyzT1hMmcAJHvZ0vAExFUJphzJo0TLhPDhk-4a5uin6G",
    "android_reg_device_id": "702cb386b139f245"
  },
  {
    "id": 217,
    "is_active": 1,
    "android_device_token": "eBLPLPO8TiQ:APA91bG1AUz1GECq5bxVEYJYBGfDIWWGf-NpmQAEtfN7kQEnxGCCaDyHZOzStHwuy4MTsDmCSxlnsQmMVITVc51qtkH7VRlD3J-Ejg_I7yiM8NLmjX_A3sjPvrJc20J-unmjBEnfUZVr",
    "android_reg_device_id": "702cb386b139f245"
  },
  {
    "id": 218,
    "is_active": 1,
    "android_device_token": "emXY-zvhq24:APA91bHj_8UMxsS5d5zV_67DwokEbws8YEWlYL9HjzY0PyQGlUzAKI9H3YNohTKvK8fCyNAE9ssVRvBvpYjGYy01AcTMFUJfGoSXj9Q0QUkNdBvar7kkrGXrGnL5WPP2uMBrUk09vFuQ",
    "android_reg_device_id": "bac653ee7d8dd686"
  },
  {
    "id": 221,
    "is_active": 1,
    "android_device_token": "e2yh7-T4bfM:APA91bGUqmbmT6nGNip751Th1IfSPDjt9f1yiyPbO2p_W9mvzUojwnEo_arCjTgLtE0Lv8L6ePTwgNQQBJC4FvzLk26ODFvF-JYSygjRuVKGbRBTYPWcdgcnAGhuTZlUU_ODqpY8O6xw",
    "android_reg_device_id": "7514d82a966c13ad"
  },
  {
    "id": 222,
    "is_active": 1,
    "android_device_token": "fM0LGBaVZNI:APA91bETdY-dGm7J6MEVAoLYeBUbUMRtZUrIspWoS2bAxHFr2tOdLElcWy3ITCML54cnFJH6Z9biTHxb0WtzVFpBNvE5TTlvMk8Yg7-cPHwC5IMqXAcx7khAsxBg3k38nGIDTJBfiGkG",
    "android_reg_device_id": "9ba75303eaf8f822"
  },
  {
    "id": 226,
    "is_active": 1,
    "android_device_token": "cNiauxUWFoI:APA91bEcBGlHMtA7huNdTmcpkiC03pg1y6Z79SPpKVoYbNA0ZUHHfkYulCFDKWUnidal5RRSwMv6BI-l-GFuTCYAQsvxb9joJmbKB071IIpYTt3f02e-rNBJiCP3-PU7KYgkReo8b_Q8",
    "android_reg_device_id": "702cb386b139f245"
  },
  {
    "id": 228,
    "is_active": 1,
    "android_device_token": "dHuFW9M2v8g:APA91bHrDo73Ea4vG-1P5ldc_W0qDybZunZZBSlpjnJhsVMO6Nk65QTVkKIcK3JG3aIC8sQIer2zMeRVi2tV2Va5tBL1AT1d-iXdugTJsnmlD1evtLRQ_sBOcTrmCaGYFs5oNRsQxuws",
    "android_reg_device_id": "5eb12f3de30d052a"
  },
  {
    "id": 229,
    "is_active": 1,
    "android_device_token": "cbKjTC5Iw8E:APA91bHgOFw3qN0osPru2XNEwRqPu0edFqbqEfk1gy2jkl09giN3_NCFzO8kxamwBMMsE41HlA873dCt63oZq9QJufM_3gwEe0vm3_xeFM2M3z0V6L0z_mIi0weMverMSn1QdshSHLt7",
    "android_reg_device_id": "5eb12f3de30d052a"
  },
  {
    "id": 231,
    "is_active": 1,
    "android_device_token": "cUOBdwy_iIA:APA91bEF90bFQAR3NbRVv9yHDnV-5QYY8183wI0tIZlVKxhksuZQ3Ke59eqc-iw2Ow7nTed-9PkAy56uDqeGxqMaTlJB5z9WICtkTXFgRyhz8aTN1meDtZSlZBPOoMKeed1Dwwfzvt2Y",
    "android_reg_device_id": "bf48394c72c3d28c"
  },
  {
    "id": 233,
    "is_active": 1,
    "android_device_token": "cyHg1QNkAqk:APA91bHUkt2qSm4nlDrX_t-YlYZYNPSP8flZxFuklCqimUDlLIw909PF4QzyBpU2VamORccUg_mCx9BMh4Q4GK7uZGgdBmTBqsngkUooJfBV5F2MUB0XiSNGurGKeuZmokoa3MhRkxpN",
    "android_reg_device_id": "ce9c64c7f0b74b79"
  },
  {
    "id": 234,
    "is_active": 1,
    "android_device_token": "dX9oeVVbfGQ:APA91bGxjQ4VNg-xyh2inXeZdjJYZeEPNwpMrqOumpLokqSEdG1DzrLzn0jBH9b2mSCw5gl5dQz7Ggu54AFTrmg0YGs1X-x4RYoNmnXyQSCTVAkPGPNh6hQCKSPm7XKcOJd_z5LvVwkH",
    "android_reg_device_id": "2ec661d41626e08f"
  },
  {
    "id": 235,
    "is_active": 1,
    "android_device_token": "cYQpc5JPP7g:APA91bFTGR7WiprRPbbfzy8ulzxAbT0PNVE9w1PqXDDTEXkOMDcWQnpvQ95vkbcd6FfGV71ylFkGcbqKvMa7MCzkEG2_PuhThe4RcKgBZ4kS42-jF12X1ItQQsFAr3Y02jvdEPEQZtJg",
    "android_reg_device_id": "52e602c2e9dc6b13"
  },
  {
    "id": 237,
    "is_active": 1,
    "android_device_token": "ewnGkbwtxIk:APA91bFjsj2YvuwtRbPxDe5M7dMDsSY2PlQsYaHADJCSlXVXos9pcsnFIm8ShOOPG2tiLH4af0yBeh_NycpHm26mikGRK2G3ollwTuds28YDumsKFJJKX3ZzrTtpplfO-09LFydBiK7m",
    "android_reg_device_id": "2c1024e98e978c52"
  },
  {
    "id": 242,
    "is_active": 1,
    "android_device_token": "exuGeRGrNAU:APA91bGDATbbc-f99PyToQFTTiyN440zuUkfJekaOTqJSgxBEmj-aw0feoTr3AbumW0qJJhplR_Ww41AQYuG2vdJ1oCFt11Eh-pp033X0LvWnG4kAYAc5i8PYBZdggOHdpPbV8vW6nxn",
    "android_reg_device_id": "80ffc51534f18619"
  },
  {
    "id": 243,
    "is_active": 1,
    "android_device_token": "c0G_--gp92M:APA91bE2vYEWfbOxrg7vCS-CHXNrkybDhq4Ih3Epfx6RYpKtXPgOY9-Ikm7ul8P83NAd_UkL9S4boR_NQPSKFX2peJtf61R8MeZXvCxhE0xJauM82h4XUn6HtQg5sJndOZ-KicujvlKn",
    "android_reg_device_id": "9e47458c8725d1f8"
  },
  {
    "id": 244,
    "is_active": 1,
    "android_device_token": "cJP09hdf3uc:APA91bE3ROtnJDyaMypJzQGakxZfpZFmpzk6XeZLSK4Zi_y5gWo9Xplhp0lrbl575OnSgTJa5nV7JXV16_lIL64Uyf-JSFhI7rs1BXDbPwAyDaus2IlR5gF3owL51e5crdpH7AvXYhZk",
    "android_reg_device_id": "52e602c2e9dc6b13"
  },
  {
    "id": 245,
    "is_active": 1,
    "android_device_token": "eMZImUDwqds:APA91bGbT9zH9rOKoYXybTsxrDIfvbwTa8K0MTgqMTy6w3ZHNAJuD1AAON0Y7krD4R0mNLVOCEaJf6qjcfOnQH0KHTStJH7mG7wl0lMArZ_wbq5UsSlmn8pcn5SP1YZZxfMqBs81g6MY",
    "android_reg_device_id": "702cb386b139f245"
  }
]
