[
  {
    "Area_Id": 796
  },
  {
    "Area_Id": 797
  },
  {
    "Area_Id": 798
  },
  {
    "Area_Id": 799
  },
  {
    "Area_Id": 800
  },
  {
    "Area_Id": 801
  },
  {
    "Area_Id": 804
  },
  {
    "Area_Id": 808
  },
  {
    "Area_Id": 812
  }
]
